// Jest Snapshot v1, https://goo.gl/fbAQLP

exports[`renders when there are not items 1`] = `
<div
  className="col-lg-3 col-md-4 col-sm-6 col-12"
  style={
    Object {
      "textAlign": "center",
    }
  }
>
  <div>
    <img
      alt=" scoop"
      src="http://localhost:3030/"
      style={
        Object {
          "width": "45%",
        }
      }
    />
  </div>
  <div
    className="row"
    style={
      Object {
        "marginTop": "10px",
      }
    }
  >
    <label
      className="form-label col-form-label col-6"
      htmlFor="-count"
      style={
        Object {
          "textAlign": "right",
        }
      }
    />
    <div
      className="col-5"
      style={
        Object {
          "textAlign": "left",
        }
      }
    >
      <input
        className="form-control"
        defaultValue={0}
        id="-count"
        onChange={[Function]}
        type="number"
      />
    </div>
  </div>
</div>
`;
